{
  "project_info": {
    "project_number": "917651073008",
    "project_id": "project-amber-71e0c",
    "storage_bucket": "project-amber-71e0c.appspot.com"
  },
  "client": [
    {
      "client_info": {
        "mobilesdk_app_id": "1:917651073008:android:14c2e50dd386d3c0211f35",
        "android_client_info": {
          "package_name": "com.xuan.projectamber"
        }
      },
      "oauth_client": [
        {
          "client_id": "917651073008-un8cujtme1ghv66ao4m85qr6f5lp5cn8.apps.googleusercontent.com",
          "client_type": 3
        }
      ],
      "api_key": [
        {
          "current_key": "AIzaSyBXCx_K025XsQMtjEBqZsvpUBH0bD26Qoc"
        }
      ],
      "services": {
        "appinvite_service": {
          "other_platform_oauth_client": [
            {
              "client_id": "917651073008-un8cujtme1ghv66ao4m85qr6f5lp5cn8.apps.googleusercontent.com",
              "client_type": 3
            }
          ]
        }
      }
    }
  ],
  "configuration_version": "1"
}